{
  "project_info": {
    "project_number": "460279097058",
    "firebase_url": "https://mitsubishidetagroup-1ff2d.firebaseio.com",
    "project_id": "mitsubishidetagroup-1ff2d",
    "storage_bucket": "mitsubishidetagroup-1ff2d.appspot.com"
  },
  "client": [
    {
      "client_info": {
        "mobilesdk_app_id": "1:460279097058:android:61ffced15716aa9c",
        "android_client_info": {
          "package_name": "com.mitsubishidetagroup.apps.mitsubishi"
        }
      },
      "oauth_client": [
        {
          "client_id": "460279097058-0klci15f8p5ubjaagc56l24p7vejq7de.apps.googleusercontent.com",
          "client_type": 3
        }
      ],
      "api_key": [
        {
          "current_key": "AIzaSyCYht-mCqv4EY8I_mdPLynYVLvIiEbhHgk"
        }
      ],
      "services": {
        "analytics_service": {
          "status": 1
        },
        "appinvite_service": {
          "status": 1,
          "other_platform_oauth_client": []
        },
        "ads_service": {
          "status": 2
        }
      }
    }
  ],
  "configuration_version": "1"
}